<svg xmlns="http://www.w3.org/2000/svg" xmlns:xlink="http://www.w3.org/1999/xlink" width="211.39" height="46.841" viewBox="0 0 211.39 46.841">
  <defs>
    <linearGradient id="linear-gradient" x1="0.5" x2="0.5" y2="1" gradientUnits="objectBoundingBox">
      <stop offset="0" stop-color="#e80666"/>
      <stop offset="1" stop-color="#e65454"/>
    </linearGradient>
  </defs>
  <g id="Group_79" data-name="Group 79" transform="translate(727.123 11864.314)">
    <path id="Path_60" data-name="Path 60" d="M1.279-4.573V-1.2h.505V-4.573H3.05V-5H.014v.425ZM3.481-5v3.8h.479V-4.36H3.97L5.155-1.2h.431L6.772-4.36h.011V-1.2h.479V-5H6.57l-1.2,3.19L4.172-5Z" transform="translate(-524.136 -11856.807)" fill="#fff"/>
    <path id="Path_61" data-name="Path 61" d="M6.79-50.368h4.519L34.224-17.4h.106V-50.368H37.84v37.642H33.32L10.405-45.689H10.3v32.964H6.79ZM42.465-37.289h3.19v24.563h-3.19Zm-.8-9.73a2.312,2.312,0,0,1,.691-1.7,2.312,2.312,0,0,1,1.7-.691,2.312,2.312,0,0,1,1.7.691,2.312,2.312,0,0,1,.691,1.7,2.312,2.312,0,0,1-.691,1.7,2.312,2.312,0,0,1-1.7.691,2.312,2.312,0,0,1-1.7-.691A2.312,2.312,0,0,1,41.668-47.018Zm29.4,29.667a10.755,10.755,0,0,1-4.6,4.041,14.632,14.632,0,0,1-6.034,1.223,13.1,13.1,0,0,1-5.1-.957A11.509,11.509,0,0,1,51.4-15.73a11.794,11.794,0,0,1-2.525-4.094,14.963,14.963,0,0,1-.877-5.237,14.045,14.045,0,0,1,.9-5.1,12.183,12.183,0,0,1,2.552-4.067,11.977,11.977,0,0,1,3.881-2.712,12.134,12.134,0,0,1,4.945-.984,11.851,11.851,0,0,1,4.971.984,10.883,10.883,0,0,1,3.615,2.605,11.028,11.028,0,0,1,2.206,3.7,12.35,12.35,0,0,1,.744,4.2v2.233H51.185a10.913,10.913,0,0,0,.4,2.579,9.127,9.127,0,0,0,1.462,3.057,9.264,9.264,0,0,0,2.844,2.552,8.877,8.877,0,0,0,4.6,1.063,10.266,10.266,0,0,0,4.732-1.17,8.526,8.526,0,0,0,3.509-3.19Zm-2.446-9.73a7.25,7.25,0,0,0-.665-3.084,8.245,8.245,0,0,0-1.808-2.525,8.552,8.552,0,0,0-2.712-1.728,8.734,8.734,0,0,0-3.323-.638,8.136,8.136,0,0,0-4.333,1.063,9.483,9.483,0,0,0-2.738,2.446,9.722,9.722,0,0,0-1.436,2.685,7.118,7.118,0,0,0-.425,1.781Zm5-25.839h3.19v19.938h.106a8.607,8.607,0,0,1,3.19-3.482,9.3,9.3,0,0,1,5.21-1.462,10.476,10.476,0,0,1,4.679.9,7.53,7.53,0,0,1,2.844,2.366,8.9,8.9,0,0,1,1.436,3.376,19.241,19.241,0,0,1,.4,3.934v14.621h-3.19V-27.187a15.6,15.6,0,0,0-.266-2.9,7.675,7.675,0,0,0-.93-2.525,4.866,4.866,0,0,0-1.861-1.781,6.375,6.375,0,0,0-3.11-.665A9.067,9.067,0,0,0,82-34.444a7.149,7.149,0,0,0-2.712,1.861,9.015,9.015,0,0,0-1.808,3.137,13.377,13.377,0,0,0-.665,4.439v12.282h-3.19Zm45.936,35.569a10.755,10.755,0,0,1-4.6,4.041,14.632,14.632,0,0,1-6.034,1.223,13.1,13.1,0,0,1-5.1-.957,11.508,11.508,0,0,1-3.934-2.685,11.794,11.794,0,0,1-2.525-4.094,14.963,14.963,0,0,1-.877-5.237,14.045,14.045,0,0,1,.9-5.1,12.182,12.182,0,0,1,2.552-4.067,11.977,11.977,0,0,1,3.881-2.712,12.134,12.134,0,0,1,4.945-.984,11.851,11.851,0,0,1,4.971.984,10.883,10.883,0,0,1,3.615,2.605,11.028,11.028,0,0,1,2.206,3.7,12.35,12.35,0,0,1,.744,4.2v2.233H99.673a10.914,10.914,0,0,0,.4,2.579,9.128,9.128,0,0,0,1.462,3.057,9.264,9.264,0,0,0,2.844,2.552,8.878,8.878,0,0,0,4.6,1.063,10.266,10.266,0,0,0,4.732-1.17,8.526,8.526,0,0,0,3.509-3.19Zm-2.446-9.73a7.25,7.25,0,0,0-.665-3.084,8.245,8.245,0,0,0-1.808-2.525,8.552,8.552,0,0,0-2.712-1.728,8.734,8.734,0,0,0-3.323-.638,8.136,8.136,0,0,0-4.333,1.063,9.483,9.483,0,0,0-2.738,2.446,9.722,9.722,0,0,0-1.436,2.685,7.118,7.118,0,0,0-.425,1.781Zm3.7,12.441,14.727-19.778H121.555v-2.871h18.4v1.914L125.277-15.6h15.312v2.871H120.811Z" transform="translate(-656.322 -11808.825)" fill="#fff"/>
    <g id="Group_78" data-name="Group 78" transform="translate(-727.123 -11864.314)">
      <path id="Path_62" data-name="Path 62" d="M9.075,0a9.075,9.075,0,0,1,9.075,9.075V56.566A9.075,9.075,0,1,1,0,56.566V9.075A9.075,9.075,0,0,1,9.075,0Z" transform="translate(66.478 30.817) rotate(118)" fill="url(#linear-gradient)"/>
      <path id="Path_63" data-name="Path 63" d="M9.075,0h0a9.075,9.075,0,1,1,0,18.149h0A9.075,9.075,0,0,1,9.075,0Z" transform="matrix(-0.454, 0.891, -0.891, -0.454, 66.85, 8.379)" fill="#bd785d"/>
      <path id="Path_64" data-name="Path 64" d="M9.075,0h0a9.075,9.075,0,1,1,0,18.149h0A9.075,9.075,0,0,1,9.075,0Z" transform="matrix(-0.454, 0.891, -0.891, -0.454, 24.5, 30.44)" fill="#bd785d"/>
    </g>
    <path id="Path_61-2" data-name="Path 61" d="M153.122-8.485l15.715-20.984H154.854l-2.427-2.871H173.25v1.914L156.872-8.352l-1.525,1.934h-3.764Z" transform="translate(-689.621 -11813.774)" fill="#e72d5d"/>
  </g>
</svg>
