<svg xmlns="http://www.w3.org/2000/svg" xmlns:xlink="http://www.w3.org/1999/xlink" width="493" height="84.134" viewBox="0 0 493 84.134">
  <defs>
    <filter id="Ellipse_38" x="2" y="4" width="37" height="37" filterUnits="userSpaceOnUse">
      <feOffset dy="3" input="SourceAlpha"/>
      <feGaussianBlur stdDeviation="3" result="blur"/>
      <feFlood flood-opacity="0.161"/>
      <feComposite operator="in" in2="blur"/>
      <feComposite in="SourceGraphic"/>
    </filter>
    <filter id="Ellipse_39" x="153" y="4" width="37" height="37" filterUnits="userSpaceOnUse">
      <feOffset dy="3" input="SourceAlpha"/>
      <feGaussianBlur stdDeviation="3" result="blur-2"/>
      <feFlood flood-opacity="0.161"/>
      <feComposite operator="in" in2="blur-2"/>
      <feComposite in="SourceGraphic"/>
    </filter>
    <filter id="Ellipse_40" x="303" y="4" width="37" height="37" filterUnits="userSpaceOnUse">
      <feOffset dy="3" input="SourceAlpha"/>
      <feGaussianBlur stdDeviation="3" result="blur-3"/>
      <feFlood flood-opacity="0.161"/>
      <feComposite operator="in" in2="blur-3"/>
      <feComposite in="SourceGraphic"/>
    </filter>
    <filter id="Ellipse_41" x="455" y="4" width="37" height="37" filterUnits="userSpaceOnUse">
      <feOffset dy="3" input="SourceAlpha"/>
      <feGaussianBlur stdDeviation="3" result="blur-4"/>
      <feFlood flood-opacity="0.161"/>
      <feComposite operator="in" in2="blur-4"/>
      <feComposite in="SourceGraphic"/>
    </filter>
  </defs>
  <g id="Group_3187" data-name="Group 3187" transform="translate(9932 7815)">
    <path id="Path_102" data-name="Path 102" d="M8.417-4.412a5.579,5.579,0,0,1-.482,2.393A3.633,3.633,0,0,1,6.554-.432a3.819,3.819,0,0,1-2.06.559,3.845,3.845,0,0,1-2.05-.552A3.669,3.669,0,0,1,1.047-2a5.42,5.42,0,0,1-.5-2.358v-.457a5.55,5.55,0,0,1,.492-2.4,3.663,3.663,0,0,1,1.39-1.593,3.824,3.824,0,0,1,2.053-.555,3.824,3.824,0,0,1,2.053.555A3.663,3.663,0,0,1,7.925-7.22a5.534,5.534,0,0,1,.492,2.4Zm-1.93-.419A3.889,3.889,0,0,0,5.967-7.04a1.7,1.7,0,0,0-1.485-.755A1.7,1.7,0,0,0,3-7.049a3.845,3.845,0,0,0-.527,2.187v.451A3.938,3.938,0,0,0,3-2.215a1.692,1.692,0,0,0,1.5.781,1.677,1.677,0,0,0,1.473-.752A3.915,3.915,0,0,0,6.487-4.38Zm7.052-.317a4.984,4.984,0,0,0-.66-.051,1.344,1.344,0,0,0-1.365.7V0H9.68V-6.868h1.733l.051.819A1.7,1.7,0,0,1,12.994-7a1.922,1.922,0,0,1,.571.083Zm.6,1.663a4.139,4.139,0,0,1,.72-2.558A2.338,2.338,0,0,1,16.828-7a2.1,2.1,0,0,1,1.657.749v-3.5h1.841V0H18.668L18.58-.73a2.159,2.159,0,0,1-1.765.857,2.331,2.331,0,0,1-1.946-.955A4.272,4.272,0,0,1,14.136-3.485Zm1.834.133a2.7,2.7,0,0,0,.336,1.479,1.1,1.1,0,0,0,.978.514,1.228,1.228,0,0,0,1.2-.717v-2.71A1.21,1.21,0,0,0,17.3-5.5Q15.971-5.5,15.971-3.352ZM24.908.127A3.372,3.372,0,0,1,22.448-.8,3.294,3.294,0,0,1,21.5-3.269v-.178a4.149,4.149,0,0,1,.4-1.85,2.935,2.935,0,0,1,1.133-1.257A3.18,3.18,0,0,1,24.705-7a2.85,2.85,0,0,1,2.219.889,3.611,3.611,0,0,1,.809,2.52v.749H23.359A1.7,1.7,0,0,0,23.9-1.758a1.621,1.621,0,0,0,1.133.406,1.98,1.98,0,0,0,1.657-.768l.9,1.009A2.754,2.754,0,0,1,26.47-.2,3.665,3.665,0,0,1,24.908.127ZM24.7-5.51a1.149,1.149,0,0,0-.885.368,1.9,1.9,0,0,0-.435,1.054H25.93v-.146a1.356,1.356,0,0,0-.33-.943A1.186,1.186,0,0,0,24.7-5.51Zm7.935.362a4.984,4.984,0,0,0-.66-.051,1.344,1.344,0,0,0-1.365.7V0H28.774V-6.868h1.733l.051.819A1.7,1.7,0,0,1,32.087-7a1.922,1.922,0,0,1,.571.083ZM36.677.127A3.372,3.372,0,0,1,34.217-.8a3.294,3.294,0,0,1-.949-2.469v-.178a4.149,4.149,0,0,1,.4-1.85A2.935,2.935,0,0,1,34.8-6.554,3.18,3.18,0,0,1,36.474-7a2.85,2.85,0,0,1,2.219.889,3.611,3.611,0,0,1,.809,2.52v.749H35.128a1.7,1.7,0,0,0,.536,1.079,1.621,1.621,0,0,0,1.133.406,1.98,1.98,0,0,0,1.657-.768l.9,1.009A2.754,2.754,0,0,1,38.238-.2,3.665,3.665,0,0,1,36.677.127ZM36.467-5.51a1.149,1.149,0,0,0-.885.368,1.9,1.9,0,0,0-.435,1.054H37.7v-.146a1.356,1.356,0,0,0-.33-.943A1.186,1.186,0,0,0,36.467-5.51Zm3.79,2.025a4.139,4.139,0,0,1,.72-2.558A2.338,2.338,0,0,1,42.948-7a2.1,2.1,0,0,1,1.657.749v-3.5h1.841V0H44.789L44.7-.73a2.159,2.159,0,0,1-1.765.857A2.331,2.331,0,0,1,40.99-.828,4.272,4.272,0,0,1,40.257-3.485Zm1.834.133a2.7,2.7,0,0,0,.336,1.479,1.1,1.1,0,0,0,.978.514,1.228,1.228,0,0,0,1.2-.717v-2.71A1.21,1.21,0,0,0,43.418-5.5Q42.091-5.5,42.091-3.352ZM5.3,11.407a3.2,3.2,0,0,1-.542,1.98,1.8,1.8,0,0,1-1.514.71,1.649,1.649,0,0,1-1.372-.659L1.812,14H.542V6.5H1.953V9.19a1.607,1.607,0,0,1,1.284-.571,1.81,1.81,0,0,1,1.516.71,3.2,3.2,0,0,1,.549,2Zm-1.411-.1a2.1,2.1,0,0,0-.254-1.169.859.859,0,0,0-.757-.369.931.931,0,0,0-.928.552V12.4a.943.943,0,0,0,.938.557.871.871,0,0,0,.9-.674A3.476,3.476,0,0,0,3.892,11.3Zm4.253.7.977-3.286h1.514l-2.124,6.1-.117.278a1.61,1.61,0,0,1-1.562,1.035,2.22,2.22,0,0,1-.625-.093V14.972l.215,0a1.161,1.161,0,0,0,.6-.122.8.8,0,0,0,.31-.405l.166-.435-1.851-5.3H7.163Zm7.227-4.585v1.3h.9V9.752h-.9v2.637a.63.63,0,0,0,.112.42.564.564,0,0,0,.43.127,2.25,2.25,0,0,0,.415-.034v1.069a2.905,2.905,0,0,1-.854.127,1.347,1.347,0,0,1-1.514-1.5V9.752h-.771V8.717h.771v-1.3Zm3.066,1.875a1.761,1.761,0,0,1,1.411-.674q1.719,0,1.743,2V14H20.181V10.655a.982.982,0,0,0-.2-.671.837.837,0,0,0-.649-.217.96.96,0,0,0-.9.479V14H17.026V6.5h1.411Zm6.65,4.8a2.594,2.594,0,0,1-1.892-.713,2.534,2.534,0,0,1-.73-1.9v-.137a3.192,3.192,0,0,1,.308-1.423,2.258,2.258,0,0,1,.872-.967,2.446,2.446,0,0,1,1.287-.339,2.193,2.193,0,0,1,1.707.684,2.778,2.778,0,0,1,.623,1.938v.576H23.9a1.311,1.311,0,0,0,.413.83,1.247,1.247,0,0,0,.872.313,1.523,1.523,0,0,0,1.274-.591l.693.776a2.118,2.118,0,0,1-.859.7A2.819,2.819,0,0,1,25.088,14.1Zm-.161-4.336a.884.884,0,0,0-.681.283,1.463,1.463,0,0,0-.334.811h1.963v-.112a1.043,1.043,0,0,0-.254-.725A.912.912,0,0,0,24.927,9.762Zm7.822,3.2a.926.926,0,0,0,.635-.215.753.753,0,0,0,.254-.571h1.323a1.81,1.81,0,0,1-.293.984,1.933,1.933,0,0,1-.789.693,2.468,2.468,0,0,1-1.106.247,2.294,2.294,0,0,1-1.787-.72,2.85,2.85,0,0,1-.654-1.99v-.093a2.817,2.817,0,0,1,.649-1.948,2.267,2.267,0,0,1,1.782-.728,2.222,2.222,0,0,1,1.589.564,2,2,0,0,1,.608,1.5H33.638a.962.962,0,0,0-.254-.667.946.946,0,0,0-1.389.1,2.077,2.077,0,0,0-.251,1.165v.146a2.1,2.1,0,0,0,.249,1.172A.861.861,0,0,0,32.749,12.96Zm6.182.5a1.77,1.77,0,0,1-1.445.635,1.669,1.669,0,0,1-1.3-.488,2.084,2.084,0,0,1-.457-1.431V8.717h1.411V12.13q0,.825.752.825a1.019,1.019,0,0,0,.986-.5V8.717H40.3V14H38.97Zm5.293-.923a.455.455,0,0,0-.256-.408,2.912,2.912,0,0,0-.823-.266q-1.885-.4-1.885-1.6a1.452,1.452,0,0,1,.583-1.174,2.354,2.354,0,0,1,1.526-.471,2.533,2.533,0,0,1,1.609.474,1.493,1.493,0,0,1,.6,1.23H44.17a.683.683,0,0,0-.2-.5.827.827,0,0,0-.61-.2.845.845,0,0,0-.552.161.509.509,0,0,0-.2.41.435.435,0,0,0,.222.378,2.286,2.286,0,0,0,.75.249,6.122,6.122,0,0,1,.889.237A1.46,1.46,0,0,1,45.6,12.481a1.378,1.378,0,0,1-.62,1.169,2.675,2.675,0,0,1-1.6.447,2.794,2.794,0,0,1-1.179-.237,1.978,1.978,0,0,1-.808-.649,1.509,1.509,0,0,1-.293-.891h1.338a.737.737,0,0,0,.278.576,1.1,1.1,0,0,0,.693.2,1.022,1.022,0,0,0,.613-.154A.479.479,0,0,0,44.224,12.54Zm3.97-5.122v1.3h.9V9.752h-.9v2.637a.63.63,0,0,0,.112.42.564.564,0,0,0,.43.127,2.25,2.25,0,0,0,.415-.034v1.069a2.9,2.9,0,0,1-.854.127,1.347,1.347,0,0,1-1.514-1.5V9.752h-.771V8.717h.771v-1.3Zm1.323,3.892a3.133,3.133,0,0,1,.3-1.4,2.216,2.216,0,0,1,.872-.952,2.543,2.543,0,0,1,1.321-.337,2.406,2.406,0,0,1,1.746.654,2.626,2.626,0,0,1,.754,1.777l.01.361a2.761,2.761,0,0,1-.679,1.951,2.631,2.631,0,0,1-3.645,0,2.81,2.81,0,0,1-.681-1.992Zm1.411.1a1.97,1.97,0,0,0,.283,1.15,1.018,1.018,0,0,0,1.611,0,2.155,2.155,0,0,0,.288-1.257,1.95,1.95,0,0,0-.288-1.143.937.937,0,0,0-.811-.405.922.922,0,0,0-.8.4A2.191,2.191,0,0,0,50.928,11.412Zm5.786-2.7.044.591a1.857,1.857,0,0,1,1.519-.688,1.409,1.409,0,0,1,1.4.806,1.814,1.814,0,0,1,1.587-.806,1.576,1.576,0,0,1,1.279.5,2.3,2.3,0,0,1,.42,1.506V14H61.548V10.631a1.006,1.006,0,0,0-.176-.657.779.779,0,0,0-.62-.208.881.881,0,0,0-.879.605l0,3.628H58.467V10.636a.994.994,0,0,0-.181-.664.787.787,0,0,0-.615-.205.914.914,0,0,0-.869.5V14H55.391V8.717ZM66.479,14.1a2.594,2.594,0,0,1-1.892-.713,2.534,2.534,0,0,1-.73-1.9v-.137a3.192,3.192,0,0,1,.308-1.423,2.258,2.258,0,0,1,.872-.967,2.446,2.446,0,0,1,1.287-.339A2.193,2.193,0,0,1,68.03,9.3a2.778,2.778,0,0,1,.623,1.938v.576H65.288a1.311,1.311,0,0,0,.413.83,1.247,1.247,0,0,0,.872.313,1.523,1.523,0,0,0,1.274-.591l.693.776a2.118,2.118,0,0,1-.859.7A2.819,2.819,0,0,1,66.479,14.1Zm-.161-4.336a.884.884,0,0,0-.681.283,1.463,1.463,0,0,0-.334.811h1.963v-.112a1.043,1.043,0,0,0-.254-.725A.912.912,0,0,0,66.318,9.762Zm6.1.278A3.834,3.834,0,0,0,71.914,10a1.034,1.034,0,0,0-1.05.542V14H69.453V8.717h1.333l.039.63A1.308,1.308,0,0,1,72,8.619a1.479,1.479,0,0,1,.439.063Z" transform="translate(-9925 -7747)" fill="#4bd396"/>
    <path id="Path_103" data-name="Path 103" d="M-21.265-1.9H-24.6L-25.238,0h-2.025l3.44-9.242h1.765L-18.6,0h-2.025Zm-2.825-1.542h2.311L-22.94-6.906ZM-14.136-1.9a.591.591,0,0,0-.333-.53,3.785,3.785,0,0,0-1.07-.346q-2.45-.514-2.45-2.082a1.887,1.887,0,0,1,.759-1.527A3.06,3.06,0,0,1-15.247-7a3.293,3.293,0,0,1,2.092.616,1.94,1.94,0,0,1,.784,1.6h-1.834a.888.888,0,0,0-.254-.651,1.075,1.075,0,0,0-.793-.257,1.1,1.1,0,0,0-.717.209.661.661,0,0,0-.254.533.565.565,0,0,0,.289.492,2.971,2.971,0,0,0,.974.324,7.958,7.958,0,0,1,1.155.308,1.9,1.9,0,0,1,1.454,1.847,1.792,1.792,0,0,1-.806,1.52,3.478,3.478,0,0,1-2.082.581,3.632,3.632,0,0,1-1.533-.308,2.572,2.572,0,0,1-1.051-.844,1.962,1.962,0,0,1-.381-1.158h1.739a.958.958,0,0,0,.362.749,1.435,1.435,0,0,0,.9.26,1.328,1.328,0,0,0,.8-.2A.622.622,0,0,0-14.136-1.9Zm6.684,0a.591.591,0,0,0-.333-.53,3.785,3.785,0,0,0-1.07-.346q-2.45-.514-2.45-2.082a1.887,1.887,0,0,1,.759-1.527A3.06,3.06,0,0,1-8.563-7a3.293,3.293,0,0,1,2.092.616,1.94,1.94,0,0,1,.784,1.6H-7.522a.888.888,0,0,0-.254-.651,1.075,1.075,0,0,0-.793-.257,1.1,1.1,0,0,0-.717.209.661.661,0,0,0-.254.533.565.565,0,0,0,.289.492,2.971,2.971,0,0,0,.974.324,7.958,7.958,0,0,1,1.155.308A1.9,1.9,0,0,1-5.668-1.974a1.792,1.792,0,0,1-.806,1.52A3.478,3.478,0,0,1-8.557.127,3.632,3.632,0,0,1-10.09-.181a2.572,2.572,0,0,1-1.051-.844,1.962,1.962,0,0,1-.381-1.158h1.739a.958.958,0,0,0,.362.749,1.435,1.435,0,0,0,.9.26,1.328,1.328,0,0,0,.8-.2A.622.622,0,0,0-7.452-1.9Zm4.9,1.9H-4.393V-6.868h1.841ZM-4.5-8.646a.9.9,0,0,1,.276-.679,1.037,1.037,0,0,1,.752-.267,1.04,1.04,0,0,1,.749.267.9.9,0,0,1,.279.679.9.9,0,0,1-.282.686,1.042,1.042,0,0,1-.746.267,1.042,1.042,0,0,1-.746-.267A.9.9,0,0,1-4.5-8.646Zm3.193,5.161A4.025,4.025,0,0,1-.555-6.03,2.437,2.437,0,0,1,1.473-7a2.138,2.138,0,0,1,1.758.774l.076-.647H4.97v6.64a2.935,2.935,0,0,1-.409,1.568A2.629,2.629,0,0,1,3.409,2.355,4.05,4.05,0,0,1,1.669,2.7,3.766,3.766,0,0,1,.2,2.4,2.614,2.614,0,0,1-.889,1.625L-.076.508a2.149,2.149,0,0,0,1.663.768A1.573,1.573,0,0,0,2.723.885,1.464,1.464,0,0,0,3.129-.222V-.59A2.122,2.122,0,0,1,1.46.127a2.431,2.431,0,0,1-2-.968,4.024,4.024,0,0,1-.765-2.568Zm1.834.133A2.5,2.5,0,0,0,.9-1.888a1.192,1.192,0,0,0,1.028.53,1.274,1.274,0,0,0,1.2-.628V-4.875A1.271,1.271,0,0,0,1.942-5.5,1.2,1.2,0,0,0,.9-4.964,2.817,2.817,0,0,0,.527-3.352ZM8.068-6.868l.057.793A2.4,2.4,0,0,1,10.1-7a1.993,1.993,0,0,1,1.625.641,2.991,2.991,0,0,1,.546,1.917V0H10.436V-4.393a1.19,1.19,0,0,0-.254-.847A1.137,1.137,0,0,0,9.337-5.5a1.262,1.262,0,0,0-1.162.66V0H6.341V-6.868Zm8.753,7A3.372,3.372,0,0,1,14.362-.8a3.294,3.294,0,0,1-.949-2.469v-.178a4.149,4.149,0,0,1,.4-1.85,2.935,2.935,0,0,1,1.133-1.257A3.18,3.18,0,0,1,16.618-7a2.85,2.85,0,0,1,2.219.889,3.611,3.611,0,0,1,.809,2.52v.749H15.272a1.7,1.7,0,0,0,.536,1.079,1.621,1.621,0,0,0,1.133.406A1.98,1.98,0,0,0,18.6-2.12l.9,1.009A2.754,2.754,0,0,1,18.383-.2,3.665,3.665,0,0,1,16.821.127ZM16.612-5.51a1.149,1.149,0,0,0-.885.368,1.9,1.9,0,0,0-.435,1.054h2.552v-.146a1.356,1.356,0,0,0-.33-.943A1.186,1.186,0,0,0,16.612-5.51ZM20.4-3.485a4.139,4.139,0,0,1,.72-2.558A2.338,2.338,0,0,1,23.093-7a2.1,2.1,0,0,1,1.657.749v-3.5H26.59V0H24.934l-.089-.73A2.159,2.159,0,0,1,23.08.127a2.331,2.331,0,0,1-1.946-.955A4.272,4.272,0,0,1,20.4-3.485Zm1.834.133a2.7,2.7,0,0,0,.336,1.479,1.1,1.1,0,0,0,.978.514,1.228,1.228,0,0,0,1.2-.717v-2.71A1.21,1.21,0,0,0,23.563-5.5Q22.236-5.5,22.236-3.352ZM-20.4,7.418v1.3h.9V9.752h-.9v2.637a.63.63,0,0,0,.112.42.564.564,0,0,0,.43.127,2.25,2.25,0,0,0,.415-.034v1.069a2.905,2.905,0,0,1-.854.127,1.347,1.347,0,0,1-1.514-1.5V9.752h-.771V8.717h.771v-1.3Zm1.323,3.892a3.133,3.133,0,0,1,.3-1.4,2.216,2.216,0,0,1,.872-.952,2.543,2.543,0,0,1,1.321-.337,2.406,2.406,0,0,1,1.746.654,2.626,2.626,0,0,1,.754,1.777l.01.361a2.761,2.761,0,0,1-.679,1.951,2.359,2.359,0,0,1-1.821.735,2.371,2.371,0,0,1-1.824-.732,2.81,2.81,0,0,1-.681-1.992Zm1.411.1a1.97,1.97,0,0,0,.283,1.15.935.935,0,0,0,.811.4.937.937,0,0,0,.8-.393,2.155,2.155,0,0,0,.288-1.257,1.95,1.95,0,0,0-.288-1.143.937.937,0,0,0-.811-.405.922.922,0,0,0-.8.4A2.191,2.191,0,0,0-17.668,11.412ZM-7.654,14a1.567,1.567,0,0,1-.142-.474,1.707,1.707,0,0,1-1.333.571,1.876,1.876,0,0,1-1.287-.449,1.445,1.445,0,0,1-.51-1.133,1.493,1.493,0,0,1,.623-1.289,3.072,3.072,0,0,1,1.8-.454h.649v-.3a.871.871,0,0,0-.188-.586.74.74,0,0,0-.593-.22.841.841,0,0,0-.559.171.581.581,0,0,0-.2.469h-1.411a1.417,1.417,0,0,1,.283-.85,1.872,1.872,0,0,1,.8-.613,2.918,2.918,0,0,1,1.162-.222,2.306,2.306,0,0,1,1.55.491,1.717,1.717,0,0,1,.574,1.379v2.29a2.526,2.526,0,0,0,.21,1.138V14Zm-1.167-.981a1.215,1.215,0,0,0,.576-.139.914.914,0,0,0,.391-.374V11.6h-.527q-1.06,0-1.128.732l0,.083a.565.565,0,0,0,.186.435A.721.721,0,0,0-8.821,13.019Zm5.737-1.7a3.184,3.184,0,0,1,.554-1.968,1.8,1.8,0,0,1,1.516-.732A1.618,1.618,0,0,1,.261,9.2V6.5H1.677V14H.4l-.068-.562a1.661,1.661,0,0,1-1.357.659,1.793,1.793,0,0,1-1.5-.735A3.286,3.286,0,0,1-3.083,11.319Zm1.411.1a2.08,2.08,0,0,0,.259,1.138.843.843,0,0,0,.752.4A.944.944,0,0,0,.261,12.4V10.318a.931.931,0,0,0-.913-.552Q-1.672,9.767-1.672,11.422ZM5.74,10.04A3.834,3.834,0,0,0,5.232,10a1.034,1.034,0,0,0-1.05.542V14H2.771V8.717H4.1l.039.63A1.308,1.308,0,0,1,5.32,8.619a1.479,1.479,0,0,1,.439.063ZM7.908,14H6.492V8.717H7.908Zm-1.5-6.65a.7.7,0,0,1,.212-.522A.8.8,0,0,1,7.2,6.622a.8.8,0,0,1,.576.205.746.746,0,0,1,0,1.05.8.8,0,0,1-.574.205.8.8,0,0,1-.574-.205A.693.693,0,0,1,6.409,7.35Zm4.639,4.927.981-3.56H13.5L11.721,14H10.374L8.591,8.717h1.475ZM16.555,14.1a2.594,2.594,0,0,1-1.892-.713,2.534,2.534,0,0,1-.73-1.9v-.137a3.192,3.192,0,0,1,.308-1.423,2.258,2.258,0,0,1,.872-.967A2.446,2.446,0,0,1,16.4,8.619a2.193,2.193,0,0,1,1.707.684,2.778,2.778,0,0,1,.623,1.938v.576H15.364a1.311,1.311,0,0,0,.413.83,1.247,1.247,0,0,0,.872.313,1.523,1.523,0,0,0,1.274-.591l.693.776a2.118,2.118,0,0,1-.859.7A2.819,2.819,0,0,1,16.555,14.1Zm-.161-4.336a.884.884,0,0,0-.681.283,1.463,1.463,0,0,0-.334.811h1.963v-.112a1.043,1.043,0,0,0-.254-.725A.912.912,0,0,0,16.394,9.762Zm6.1.278A3.834,3.834,0,0,0,21.99,10a1.034,1.034,0,0,0-1.05.542V14H19.529V8.717h1.333l.039.63a1.308,1.308,0,0,1,1.177-.728,1.479,1.479,0,0,1,.439.063Z" transform="translate(-9761 -7747)" fill="#20142e"/>
    <path id="Path_104" data-name="Path 104" d="M-17.224-3.256V0h-1.9V-9.242h3.605a4.171,4.171,0,0,1,1.831.381,2.807,2.807,0,0,1,1.216,1.082,3.018,3.018,0,0,1,.425,1.6,2.654,2.654,0,0,1-.93,2.142,3.873,3.873,0,0,1-2.574.784Zm0-1.542h1.7a1.673,1.673,0,0,0,1.152-.355,1.293,1.293,0,0,0,.4-1.016,1.524,1.524,0,0,0-.4-1.1,1.494,1.494,0,0,0-1.1-.432h-1.746Zm8.3,4.8h-1.841V-6.868h1.841Zm-1.949-8.646a.9.9,0,0,1,.276-.679,1.037,1.037,0,0,1,.752-.267,1.04,1.04,0,0,1,.749.267.9.9,0,0,1,.279.679A.9.9,0,0,1-9.1-7.96a1.042,1.042,0,0,1-.746.267,1.042,1.042,0,0,1-.746-.267A.9.9,0,0,1-10.877-8.646Zm6.316,7.293a1.2,1.2,0,0,0,.825-.279.979.979,0,0,0,.33-.743h1.72a2.353,2.353,0,0,1-.381,1.279,2.513,2.513,0,0,1-1.025.9A3.208,3.208,0,0,1-4.529.127,2.982,2.982,0,0,1-6.852-.809,3.705,3.705,0,0,1-7.7-3.4v-.121a3.663,3.663,0,0,1,.844-2.533A2.947,2.947,0,0,1-4.542-7a2.889,2.889,0,0,1,2.066.733,2.6,2.6,0,0,1,.79,1.952h-1.72a1.25,1.25,0,0,0-.33-.866,1.1,1.1,0,0,0-.838-.333,1.105,1.105,0,0,0-.968.467,2.7,2.7,0,0,0-.327,1.514v.19a2.735,2.735,0,0,0,.324,1.523A1.119,1.119,0,0,0-4.561-1.352Zm6.417-1.4-.66.66V0H-.638V-9.75H1.2v5.4l.355-.457L3.31-6.868h2.2L3.031-4.005,5.729,0H3.621ZM9.468.127A3.372,3.372,0,0,1,7.008-.8a3.294,3.294,0,0,1-.949-2.469v-.178a4.149,4.149,0,0,1,.4-1.85A2.935,2.935,0,0,1,7.592-6.554,3.18,3.18,0,0,1,9.264-7a2.85,2.85,0,0,1,2.219.889,3.611,3.611,0,0,1,.809,2.52v.749H7.919a1.7,1.7,0,0,0,.536,1.079,1.621,1.621,0,0,0,1.133.406,1.98,1.98,0,0,0,1.657-.768l.9,1.009A2.754,2.754,0,0,1,11.029-.2,3.665,3.665,0,0,1,9.468.127ZM9.258-5.51a1.149,1.149,0,0,0-.885.368,1.9,1.9,0,0,0-.435,1.054H10.49v-.146a1.356,1.356,0,0,0-.33-.943A1.186,1.186,0,0,0,9.258-5.51Zm3.79,2.025a4.139,4.139,0,0,1,.72-2.558A2.338,2.338,0,0,1,15.739-7a2.1,2.1,0,0,1,1.657.749v-3.5h1.841V0H17.58l-.089-.73a2.159,2.159,0,0,1-1.765.857,2.331,2.331,0,0,1-1.946-.955A4.272,4.272,0,0,1,13.048-3.485Zm1.834.133a2.7,2.7,0,0,0,.336,1.479,1.1,1.1,0,0,0,.978.514,1.228,1.228,0,0,0,1.2-.717v-2.71A1.21,1.21,0,0,0,16.209-5.5Q14.882-5.5,14.882-3.352Zm-37.6,14.759a3.2,3.2,0,0,1-.542,1.98,1.8,1.8,0,0,1-1.514.71,1.65,1.65,0,0,1-1.372-.659l-.063.562h-1.27V6.5h1.411V9.19a1.607,1.607,0,0,1,1.284-.571,1.81,1.81,0,0,1,1.516.71,3.2,3.2,0,0,1,.549,2Zm-1.411-.1a2.1,2.1,0,0,0-.254-1.169.859.859,0,0,0-.757-.369.931.931,0,0,0-.928.552V12.4a.943.943,0,0,0,.938.557.871.871,0,0,0,.9-.674A3.476,3.476,0,0,0-24.133,11.3Zm4.253.7.977-3.286h1.514l-2.124,6.1-.117.278a1.61,1.61,0,0,1-1.562,1.035,2.22,2.22,0,0,1-.625-.093V14.972l.215,0a1.161,1.161,0,0,0,.6-.122.8.8,0,0,0,.31-.405l.166-.435-1.851-5.3h1.519Zm7.227-4.585v1.3h.9V9.752h-.9v2.637a.63.63,0,0,0,.112.42.564.564,0,0,0,.43.127A2.25,2.25,0,0,0-11.7,12.9v1.069a2.9,2.9,0,0,1-.854.127,1.347,1.347,0,0,1-1.514-1.5V9.752h-.771V8.717h.771v-1.3Zm3.066,1.875a1.761,1.761,0,0,1,1.411-.674q1.719,0,1.743,2V14H-7.844V10.655a.982.982,0,0,0-.2-.671.837.837,0,0,0-.649-.217.96.96,0,0,0-.9.479V14H-11V6.5h1.411Zm6.65,4.8a2.594,2.594,0,0,1-1.892-.713,2.534,2.534,0,0,1-.73-1.9v-.137a3.192,3.192,0,0,1,.308-1.423,2.258,2.258,0,0,1,.872-.967,2.446,2.446,0,0,1,1.287-.339A2.193,2.193,0,0,1-1.387,9.3a2.778,2.778,0,0,1,.623,1.938v.576H-4.128a1.311,1.311,0,0,0,.413.83,1.247,1.247,0,0,0,.872.313,1.523,1.523,0,0,0,1.274-.591l.693.776a2.118,2.118,0,0,1-.859.7A2.819,2.819,0,0,1-2.937,14.1ZM-3.1,9.762a.884.884,0,0,0-.681.283,1.463,1.463,0,0,0-.334.811h1.963v-.112a1.043,1.043,0,0,0-.254-.725A.912.912,0,0,0-3.1,9.762Zm5.405,1.558a3.184,3.184,0,0,1,.554-1.968,1.8,1.8,0,0,1,1.516-.732A1.618,1.618,0,0,1,5.652,9.2V6.5H7.068V14H5.793l-.068-.562a1.661,1.661,0,0,1-1.357.659,1.793,1.793,0,0,1-1.5-.735A3.286,3.286,0,0,1,2.307,11.319Zm1.411.1a2.08,2.08,0,0,0,.259,1.138.843.843,0,0,0,.752.4.944.944,0,0,0,.923-.552V10.318a.931.931,0,0,0-.913-.552Q3.718,9.767,3.718,11.422ZM11.13,10.04A3.834,3.834,0,0,0,10.623,10a1.034,1.034,0,0,0-1.05.542V14H8.162V8.717H9.495l.039.63a1.308,1.308,0,0,1,1.177-.728,1.479,1.479,0,0,1,.439.063ZM13.3,14H11.882V8.717H13.3ZM11.8,7.35a.7.7,0,0,1,.212-.522.915.915,0,0,1,1.155,0,.746.746,0,0,1,0,1.05.905.905,0,0,1-1.147,0A.693.693,0,0,1,11.8,7.35Zm4.639,4.927.981-3.56h1.475L17.112,14H15.764L13.982,8.717h1.475ZM21.946,14.1a2.594,2.594,0,0,1-1.892-.713,2.534,2.534,0,0,1-.73-1.9v-.137a3.192,3.192,0,0,1,.308-1.423,2.258,2.258,0,0,1,.872-.967,2.446,2.446,0,0,1,1.287-.339A2.193,2.193,0,0,1,23.5,9.3a2.778,2.778,0,0,1,.623,1.938v.576H20.754a1.311,1.311,0,0,0,.413.83,1.247,1.247,0,0,0,.872.313,1.523,1.523,0,0,0,1.274-.591l.693.776a2.118,2.118,0,0,1-.859.7A2.819,2.819,0,0,1,21.946,14.1Zm-.161-4.336a.884.884,0,0,0-.681.283,1.463,1.463,0,0,0-.334.811h1.963v-.112a1.043,1.043,0,0,0-.254-.725A.912.912,0,0,0,21.785,9.762Zm6.1.278A3.834,3.834,0,0,0,27.38,10a1.034,1.034,0,0,0-1.05.542V14H24.919V8.717h1.333l.039.63a1.308,1.308,0,0,1,1.177-.728,1.479,1.479,0,0,1,.439.063Z" transform="translate(-9610 -7747)" fill="#20142e"/>
    <path id="Path_105" data-name="Path 105" d="M-54.234,0V-9.242h2.844a4.319,4.319,0,0,1,2.18.549,3.829,3.829,0,0,1,1.5,1.562,4.816,4.816,0,0,1,.54,2.3v.425a4.83,4.83,0,0,1-.53,2.292A3.8,3.8,0,0,1-49.194-.559,4.351,4.351,0,0,1-51.372,0Zm1.9-7.7v6.17h.92A2.068,2.068,0,0,0-49.7-2.26a3.3,3.3,0,0,0,.6-2.088v-.489a3.351,3.351,0,0,0-.584-2.136A2.061,2.061,0,0,0-51.391-7.7ZM-42.745.127A3.372,3.372,0,0,1-45.2-.8a3.294,3.294,0,0,1-.949-2.469v-.178a4.149,4.149,0,0,1,.4-1.85,2.935,2.935,0,0,1,1.133-1.257A3.18,3.18,0,0,1-42.948-7a2.85,2.85,0,0,1,2.219.889,3.611,3.611,0,0,1,.809,2.52v.749h-4.374a1.7,1.7,0,0,0,.536,1.079,1.621,1.621,0,0,0,1.133.406,1.98,1.98,0,0,0,1.657-.768l.9,1.009A2.754,2.754,0,0,1-41.184-.2,3.665,3.665,0,0,1-42.745.127Zm-.209-5.637a1.149,1.149,0,0,0-.885.368,1.9,1.9,0,0,0-.435,1.054h2.552v-.146a1.356,1.356,0,0,0-.33-.943A1.186,1.186,0,0,0-42.955-5.51ZM-36.943,0h-1.841V-9.75h1.841ZM-33.5,0h-1.841V-6.868H-33.5Zm-1.949-8.646a.9.9,0,0,1,.276-.679,1.037,1.037,0,0,1,.752-.267,1.04,1.04,0,0,1,.749.267.9.9,0,0,1,.279.679.9.9,0,0,1-.282.686,1.042,1.042,0,0,1-.746.267,1.042,1.042,0,0,1-.746-.267A.9.9,0,0,1-35.445-8.646Zm6.03,6.4,1.276-4.627h1.917L-28.539,0h-1.752l-2.317-6.868h1.917Zm7.16,2.368A3.372,3.372,0,0,1-24.715-.8a3.294,3.294,0,0,1-.949-2.469v-.178a4.149,4.149,0,0,1,.4-1.85,2.935,2.935,0,0,1,1.133-1.257A3.18,3.18,0,0,1-22.458-7a2.85,2.85,0,0,1,2.219.889,3.611,3.611,0,0,1,.809,2.52v.749H-23.8a1.7,1.7,0,0,0,.536,1.079,1.621,1.621,0,0,0,1.133.406,1.98,1.98,0,0,0,1.657-.768l.9,1.009A2.754,2.754,0,0,1-20.693-.2,3.665,3.665,0,0,1-22.255.127Zm-.209-5.637a1.149,1.149,0,0,0-.885.368,1.9,1.9,0,0,0-.435,1.054h2.552v-.146a1.356,1.356,0,0,0-.33-.943A1.186,1.186,0,0,0-22.464-5.51Zm7.935.362a4.984,4.984,0,0,0-.66-.051,1.344,1.344,0,0,0-1.365.7V0h-1.834V-6.868h1.733l.051.819A1.7,1.7,0,0,1-15.076-7a1.922,1.922,0,0,1,.571.083ZM-10.486.127A3.372,3.372,0,0,1-12.946-.8,3.294,3.294,0,0,1-13.9-3.269v-.178a4.149,4.149,0,0,1,.4-1.85,2.935,2.935,0,0,1,1.133-1.257A3.18,3.18,0,0,1-10.689-7a2.85,2.85,0,0,1,2.219.889,3.611,3.611,0,0,1,.809,2.52v.749h-4.374A1.7,1.7,0,0,0-11.5-1.758a1.621,1.621,0,0,0,1.133.406A1.98,1.98,0,0,0-8.709-2.12l.9,1.009A2.754,2.754,0,0,1-8.925-.2,3.665,3.665,0,0,1-10.486.127ZM-10.7-5.51a1.149,1.149,0,0,0-.885.368,1.9,1.9,0,0,0-.435,1.054h2.552v-.146a1.356,1.356,0,0,0-.33-.943A1.186,1.186,0,0,0-10.7-5.51Zm3.79,2.025a4.139,4.139,0,0,1,.72-2.558A2.338,2.338,0,0,1-4.215-7a2.1,2.1,0,0,1,1.657.749v-3.5H-.717V0H-2.374l-.089-.73A2.159,2.159,0,0,1-4.228.127,2.331,2.331,0,0,1-6.173-.828,4.272,4.272,0,0,1-6.906-3.485Zm1.834.133a2.7,2.7,0,0,0,.336,1.479,1.1,1.1,0,0,0,.978.514,1.228,1.228,0,0,0,1.2-.717v-2.71A1.21,1.21,0,0,0-3.745-5.5Q-5.072-5.5-5.072-3.352ZM-68.564,7.418v1.3h.9V9.752h-.9v2.637a.63.63,0,0,0,.112.42.564.564,0,0,0,.43.127,2.25,2.25,0,0,0,.415-.034v1.069a2.905,2.905,0,0,1-.854.127,1.347,1.347,0,0,1-1.514-1.5V9.752h-.771V8.717h.771v-1.3Zm1.323,3.892a3.133,3.133,0,0,1,.3-1.4,2.216,2.216,0,0,1,.872-.952,2.543,2.543,0,0,1,1.321-.337A2.406,2.406,0,0,1-63,9.273a2.626,2.626,0,0,1,.754,1.777l.01.361a2.761,2.761,0,0,1-.679,1.951,2.359,2.359,0,0,1-1.821.735,2.371,2.371,0,0,1-1.824-.732,2.81,2.81,0,0,1-.681-1.992Zm1.411.1a1.969,1.969,0,0,0,.283,1.15.935.935,0,0,0,.811.4.937.937,0,0,0,.8-.393,2.155,2.155,0,0,0,.288-1.257,1.95,1.95,0,0,0-.288-1.143.937.937,0,0,0-.811-.405.922.922,0,0,0-.8.4A2.191,2.191,0,0,0-65.83,11.412Zm8.643-3.994v1.3h.9V9.752h-.9v2.637a.63.63,0,0,0,.112.42.564.564,0,0,0,.43.127,2.25,2.25,0,0,0,.415-.034v1.069a2.9,2.9,0,0,1-.854.127A1.347,1.347,0,0,1-58.6,12.6V9.752h-.771V8.717h.771v-1.3Zm3.066,1.875a1.761,1.761,0,0,1,1.411-.674q1.719,0,1.743,2V14h-1.411V10.655a.982.982,0,0,0-.2-.671.837.837,0,0,0-.649-.217.96.96,0,0,0-.9.479V14h-1.411V6.5h1.411Zm6.65,4.8a2.594,2.594,0,0,1-1.892-.713,2.534,2.534,0,0,1-.73-1.9v-.137a3.192,3.192,0,0,1,.308-1.423,2.258,2.258,0,0,1,.872-.967,2.446,2.446,0,0,1,1.287-.339A2.193,2.193,0,0,1-45.92,9.3a2.778,2.778,0,0,1,.623,1.938v.576h-3.364a1.311,1.311,0,0,0,.413.83,1.247,1.247,0,0,0,.872.313,1.523,1.523,0,0,0,1.274-.591l.693.776a2.118,2.118,0,0,1-.859.7A2.819,2.819,0,0,1-47.471,14.1Zm-.161-4.336a.884.884,0,0,0-.681.283,1.463,1.463,0,0,0-.334.811h1.963v-.112a1.043,1.043,0,0,0-.254-.725A.912.912,0,0,0-47.632,9.762Zm7.822,3.2a.926.926,0,0,0,.635-.215.753.753,0,0,0,.254-.571H-37.6a1.81,1.81,0,0,1-.293.984,1.933,1.933,0,0,1-.789.693,2.468,2.468,0,0,1-1.106.247,2.294,2.294,0,0,1-1.787-.72,2.85,2.85,0,0,1-.654-1.99v-.093a2.817,2.817,0,0,1,.649-1.948,2.267,2.267,0,0,1,1.782-.728,2.222,2.222,0,0,1,1.589.564,2,2,0,0,1,.608,1.5h-1.323a.962.962,0,0,0-.254-.667.849.849,0,0,0-.645-.256.85.85,0,0,0-.745.359,2.077,2.077,0,0,0-.251,1.165v.146a2.1,2.1,0,0,0,.249,1.172A.861.861,0,0,0-39.81,12.96Zm6.182.5a1.77,1.77,0,0,1-1.445.635,1.669,1.669,0,0,1-1.3-.488,2.084,2.084,0,0,1-.457-1.431V8.717h1.411V12.13q0,.825.752.825a1.019,1.019,0,0,0,.986-.5V8.717h1.416V14h-1.328Zm5.293-.923a.455.455,0,0,0-.256-.408,2.912,2.912,0,0,0-.823-.266q-1.885-.4-1.885-1.6a1.452,1.452,0,0,1,.583-1.174,2.354,2.354,0,0,1,1.526-.471,2.533,2.533,0,0,1,1.609.474,1.493,1.493,0,0,1,.6,1.23h-1.411a.683.683,0,0,0-.2-.5.827.827,0,0,0-.61-.2.845.845,0,0,0-.552.161.509.509,0,0,0-.2.41.435.435,0,0,0,.222.378,2.286,2.286,0,0,0,.75.249,6.122,6.122,0,0,1,.889.237,1.46,1.46,0,0,1,1.118,1.421,1.378,1.378,0,0,1-.62,1.169,2.675,2.675,0,0,1-1.6.447,2.794,2.794,0,0,1-1.179-.237,1.979,1.979,0,0,1-.808-.649,1.509,1.509,0,0,1-.293-.891h1.338a.737.737,0,0,0,.278.576,1.1,1.1,0,0,0,.693.2,1.022,1.022,0,0,0,.613-.154A.479.479,0,0,0-28.335,12.54Zm3.97-5.122v1.3h.9V9.752h-.9v2.637a.63.63,0,0,0,.112.42.564.564,0,0,0,.43.127,2.25,2.25,0,0,0,.415-.034v1.069a2.905,2.905,0,0,1-.854.127,1.347,1.347,0,0,1-1.514-1.5V9.752h-.771V8.717h.771v-1.3Zm1.323,3.892a3.133,3.133,0,0,1,.3-1.4,2.216,2.216,0,0,1,.872-.952,2.543,2.543,0,0,1,1.321-.337,2.406,2.406,0,0,1,1.746.654,2.626,2.626,0,0,1,.754,1.777l.01.361a2.761,2.761,0,0,1-.679,1.951,2.359,2.359,0,0,1-1.821.735,2.371,2.371,0,0,1-1.824-.732,2.81,2.81,0,0,1-.681-1.992Zm1.411.1a1.97,1.97,0,0,0,.283,1.15.935.935,0,0,0,.811.4.937.937,0,0,0,.8-.393,2.155,2.155,0,0,0,.288-1.257,1.95,1.95,0,0,0-.288-1.143.937.937,0,0,0-.811-.405.922.922,0,0,0-.8.4A2.191,2.191,0,0,0-21.631,11.412Zm5.786-2.7.044.591a1.857,1.857,0,0,1,1.519-.688,1.409,1.409,0,0,1,1.4.806,1.814,1.814,0,0,1,1.587-.806,1.576,1.576,0,0,1,1.279.5,2.3,2.3,0,0,1,.42,1.506V14h-1.416V10.631a1.006,1.006,0,0,0-.176-.657.779.779,0,0,0-.62-.208.881.881,0,0,0-.879.605l0,3.628h-1.411V10.636a.994.994,0,0,0-.181-.664.787.787,0,0,0-.615-.205.914.914,0,0,0-.869.5V14h-1.411V8.717ZM-6.079,14.1a2.594,2.594,0,0,1-1.892-.713,2.534,2.534,0,0,1-.73-1.9v-.137a3.192,3.192,0,0,1,.308-1.423,2.258,2.258,0,0,1,.872-.967,2.446,2.446,0,0,1,1.287-.339A2.193,2.193,0,0,1-4.529,9.3a2.778,2.778,0,0,1,.623,1.938v.576H-7.271a1.311,1.311,0,0,0,.413.83,1.247,1.247,0,0,0,.872.313,1.523,1.523,0,0,0,1.274-.591l.693.776a2.118,2.118,0,0,1-.859.7A2.819,2.819,0,0,1-6.079,14.1ZM-6.24,9.762a.884.884,0,0,0-.681.283,1.463,1.463,0,0,0-.334.811h1.963v-.112a1.043,1.043,0,0,0-.254-.725A.912.912,0,0,0-6.24,9.762Zm6.1.278A3.834,3.834,0,0,0-.645,10a1.034,1.034,0,0,0-1.05.542V14H-3.105V8.717h1.333l.039.63A1.308,1.308,0,0,1-.557,8.619a1.479,1.479,0,0,1,.439.063Z" transform="translate(-9443 -7747)" fill="#20142e"/>
    <line id="Line_8" data-name="Line 8" y2="48" transform="translate(-9911.5 -7812.91)" fill="none" stroke="#707070" stroke-width="1"/>
    <line id="Line_9" data-name="Line 9" y2="48" transform="translate(-9760.354 -7812.91)" fill="none" stroke="#707070" stroke-width="1"/>
    <line id="Line_10" data-name="Line 10" y2="48" transform="translate(-9610.489 -7812.91)" fill="none" stroke="#707070" stroke-width="1"/>
    <line id="Line_11" data-name="Line 11" y2="48" transform="translate(-9458.261 -7812.91)" fill="none" stroke="#707070" stroke-width="1"/>
    <g id="Rectangle_930" data-name="Rectangle 930" transform="translate(-9925 -7808)" fill="#e6e6e6" stroke="#f2f2f2" stroke-width="7">
      <rect width="479" height="25" rx="12.5" stroke="none"/>
      <rect x="-3.5" y="-3.5" width="486" height="32" rx="16" fill="none"/>
    </g>
    <rect id="Rectangle_931" data-name="Rectangle 931" width="27" height="25" rx="12.5" transform="translate(-9925 -7808)" fill="#4bd396"/>
    <g transform="matrix(1, 0, 0, 1, -9932, -7815)" filter="url(#Ellipse_38)">
      <circle id="Ellipse_38-2" data-name="Ellipse 38" cx="9.5" cy="9.5" r="9.5" transform="translate(11 10)" fill="#fff"/>
    </g>
    <g transform="matrix(1, 0, 0, 1, -9932, -7815)" filter="url(#Ellipse_39)">
      <circle id="Ellipse_39-2" data-name="Ellipse 39" cx="9.5" cy="9.5" r="9.5" transform="translate(162 10)" fill="#fff"/>
    </g>
    <g transform="matrix(1, 0, 0, 1, -9932, -7815)" filter="url(#Ellipse_40)">
      <circle id="Ellipse_40-2" data-name="Ellipse 40" cx="9.5" cy="9.5" r="9.5" transform="translate(312 10)" fill="#fff"/>
    </g>
    <g transform="matrix(1, 0, 0, 1, -9932, -7815)" filter="url(#Ellipse_41)">
      <circle id="Ellipse_41-2" data-name="Ellipse 41" cx="9.5" cy="9.5" r="9.5" transform="translate(464 10)" fill="#fff"/>
    </g>
  </g>
</svg>
