<svg xmlns="http://www.w3.org/2000/svg" xmlns:xlink="http://www.w3.org/1999/xlink" width="2057.528" height="1375.052" viewBox="0 0 2057.528 1375.052">
  <defs>
    <linearGradient id="linear-gradient" x1="0.5" x2="0.5" y2="1" gradientUnits="objectBoundingBox">
      <stop offset="0" stop-color="#e80666"/>
      <stop offset="1" stop-color="#e65454"/>
    </linearGradient>
  </defs>
  <g id="Group_152" data-name="Group 152" transform="translate(4954.366 14069.096)">
    <g id="Group_151" data-name="Group 151" transform="translate(3980.955 -59.497)" opacity="0.153">
      <path id="Subtraction_1" data-name="Subtraction 1" d="M1733.781,1375.052a306.385,306.385,0,0,1-109.376-20.167,312.83,312.83,0,0,1-35.185-16l-1425.5-757.95a313.4,313.4,0,0,1-27.1-16.214,309.249,309.249,0,0,1-24.85-18.507c-7.821-6.462-15.4-13.39-22.535-20.591C82.183,518.5,75.4,510.937,69.082,503.153c-6.264-7.715-12.222-15.833-17.711-24.13-5.449-8.236-10.564-16.843-15.2-25.584A310.218,310.218,0,0,1,1.714,340.748C.673,330.909.1,320.913.012,311.036c-.089-9.944.311-20.007,1.19-29.908.887-9.991,2.282-20.049,4.147-29.9,1.886-9.959,4.3-19.942,7.168-29.672a309.149,309.149,0,0,1,10.252-29.239,313.4,313.4,0,0,1,13.4-28.6A308.069,308.069,0,0,1,418.193,20.168a312.869,312.869,0,0,1,35.186,16l1425.5,757.95a313.4,313.4,0,0,1,27.1,16.214,309.264,309.264,0,0,1,24.851,18.507c7.819,6.46,15.4,13.388,22.535,20.591,7.051,7.12,13.832,14.679,20.155,22.465,6.263,7.714,12.222,15.833,17.711,24.13,5.452,8.241,10.567,16.849,15.2,25.584a310.2,310.2,0,0,1,34.453,112.69c1.041,9.835,1.614,19.832,1.7,29.712.089,9.95-.312,20.013-1.19,29.908-.887,9.989-2.282,20.047-4.146,29.9-1.887,9.961-4.3,19.945-7.168,29.672a309.289,309.289,0,0,1-10.252,29.239,313.432,313.432,0,0,1-13.4,28.6,308.911,308.911,0,0,1-272.646,163.724ZM309.635,12.1A304.015,304.015,0,0,0,157.121,52.918,292.636,292.636,0,0,0,16.007,253.505c-1.744,9.561-3.022,19.329-3.8,29.031a296.235,296.235,0,0,0,1.077,57.983A302.18,302.18,0,0,0,25.494,397.03,306.555,306.555,0,0,0,81.227,499.094c6.3,7.63,13.057,15.045,20.076,22.04,7.1,7.072,14.635,13.882,22.4,20.24,7.87,6.442,16.168,12.577,24.664,18.236,8.62,5.741,17.657,11.133,26.861,16.027L1587.175,1326.38a317.121,317.121,0,0,0,35.556,16.181,311.882,311.882,0,0,0,36.42,11.41,308.244,308.244,0,0,0,73.814,8.986,304.015,304.015,0,0,0,152.513-40.822,292.692,292.692,0,0,0,143.836-287.6,302.2,302.2,0,0,0-12.21-56.511,306.545,306.545,0,0,0-55.733-102.064c-6.3-7.633-13.059-15.048-20.076-22.04-7.1-7.071-14.633-13.881-22.4-20.24-7.871-6.443-16.169-12.578-24.664-18.236-8.62-5.741-17.658-11.133-26.862-16.027L455.424,48.672a317.129,317.129,0,0,0-35.556-16.18,311.872,311.872,0,0,0-36.42-11.41A308.239,308.239,0,0,0,309.635,12.1Z" transform="translate(-8935.321 -14009.599)" fill="url(#linear-gradient)"/>
      <path id="Subtraction_2" data-name="Subtraction 2" d="M308.306,617.114a306.767,306.767,0,0,1-70.748-8.272A308.589,308.589,0,0,1,308.8,0a306.827,306.827,0,0,1,70.748,8.273,308.589,308.589,0,0,1-71.245,608.841ZM308.8,10.757a296.437,296.437,0,1,0,68.282,7.983A298.392,298.392,0,0,0,308.8,10.757Z" transform="translate(-7494.901 -14007.154)" fill="#bd785d"/>
      <path id="Subtraction_3" data-name="Subtraction 3" d="M308.306,617.114a306.767,306.767,0,0,1-70.748-8.272A308.589,308.589,0,0,1,308.8,0a306.827,306.827,0,0,1,70.748,8.273,308.589,308.589,0,0,1-71.245,608.841ZM308.8,10.757a296.437,296.437,0,1,0,68.282,7.983A298.392,298.392,0,0,0,308.8,10.757Z" transform="translate(-8934.497 -13257.436)" fill="#bd785d"/>
    </g>
  </g>
</svg>
